P2017-0076,17.740,15.125,32.865
P2017-0097,58.442,57.000,115.442
P2017-0125,,,
P2016-0015,2.997,11.792,14.789
P2017-0098,8.346,3.000,11.346
P2017-0089,7.459,6.500,13.959
P2017-0092,1.458,7.458,8.916
P1900-0145,,,
P2017-0134,2.229,3.083,5.312
P2017-0106,5.865,8.750,14.615
P2016-0055,20.424,63.625,84.049
P1900-0152,,,
P2016-0061,6.319,60.113,66.432
P2016-0049,9.240,17.417,26.657
P2016-0052,10.422,16.250,26.672
P2017-0113,4.243,13.291,17.534
P2017-0084,7.046,13.958,21.004
P2017-0074,11.375,14.375,25.750
T1900-0144,,,
P2017-0088,24.268,75.500,99.768
P2016-0034,51.017,68.584,119.601
P2016-0001,4.250,19.750,24.000
P2016-0065,9.053,6.250,15.303
P2017-0094,3.025,11.167,14.192
P2016-0069,7.348,14.542,21.890
P2016-0007,5.250,16.780,22.030
P2017-0126,9.958,11.958,21.916
P2016-0027,5.290,4.164,9.454
P2017-0141,49.264,62.583,111.847
P2016-0002,9.750,28.750,38.500
P2017-0081,31.552,44.584,76.136
P2017-0095,28.228,83.124,111.352
P2016-0029,10.818,7.417,18.235
P2016-0018,1.250,1.375,2.625
P2016-0042,1.258,23.417,24.675
P2017-0072,3.278,10.917,14.195
P2017-0138,2.292,2.292,4.584
P2016-0046,13.000,13.458,26.458
P2016-0019,8.413,7.542,15.955
P2017-0099,6.554,4.542,11.096
P2017-0116,4.450,20.821,25.271
P2016-0008,5.167,20.708,25.875
P2017-0107,2.127,6.583,8.710
P2016-0056,11.498,49.292,60.790
P2017-0117,12.316,25.219,37.535
P2017-0136,1.300,1.875,3.175
P2017-0071,2.219,14.958,17.177
P2016-0047,14.255,25.333,39.588
P2016-0017,21.556,79.705,101.261
P2016-0022,1.020,17.208,18.228
P2016-0041,,,
P2016-0045,5.458,17.458,22.916
P2017-0137,2.454,2.583,5.037
P2016-0016,8.542,18.542,27.084
P2017-0101,9.217,9.958,19.175
P2017-0112,15.212,24.500,39.712
T1900-0147,,,
P2016-0064,0.561,16.250,16.811
P2017-0096,8.880,5.875,14.755
P2017-0093,5.665,4.875,10.540
P2016-0044,20.488,8.875,29.363
P2016-0033,2.001,17.125,19.126
P2016-0037,2.743,14.125,16.868
P2016-0053,6.333,5.958,12.291
P2016-0070,54.589,81.917,136.506
P2016-0066,6.441,14.125,20.566
P2017-0122,2.081,4.083,6.164
P2016-0062,41.080,197.648,238.728
P2017-0139,2.284,2.292,4.576
P2016-0063,25.065,79.210,104.275
P2016-0020,9.054,15.750,24.804
P2016-0043,28.901,26.958,55.859
P2017-0123,51.295,60.583,111.878
P2016-0048,3.978,11.458,15.436
P2017-0075,1.917,11.417,13.334
P2017-0133,2.362,3.292,5.654
P2017-0078,0.256,8.167,8.423
P2017-0100,4.927,10.458,15.385
P2016-0021,9.958,10.958,20.916
P1900-0148,8.889,6.042,14.931
P2017-0102,1.531,6.458,7.989
P2017-0109,7.825,8.208,16.033
P2017-0131,8.037,13.083,21.120
P2016-0067,7.183,15.042,22.225
P2016-0059,7.568,9.750,17.318
P2017-0079,8.379,11.125,19.504
P2016-0060,10.000,14.000,24.000
P2016-0035,303.506,310.296,613.802
P2017-0135,2.773,3.083,5.856
P2017-0083,15.969,11.250,27.219
P2016-0038,7.833,16.833,24.666
T1900-0155,,,
P2016-0031,3.863,9.333,13.196
P2016-0025,10.096,64.356,74.452
P2017-0140,1.113,0.875,1.988
P2017-0132,10.019,7.750,17.769
P2017-0121,5.346,4.417,9.763
P1900-0153,,,0.000
P2017-0103,4.681,3.375,8.056
P2017-0128,3.708,3.708,7.416
P2016-0004,7.466,18.773,26.239
P2017-0105,8.750,8.750,17.500
P2017-0085,10.555,10.083,20.638
P2017-0120,5.023,5.125,10.148
T1900-0150,,,
P2016-0039,7.307,14.833,22.140
P2017-0111,5.561,5.167,10.728
P2017-0080,27.557,64.792,92.349
P2016-0014,7.281,12.000,19.281
P2017-0073,13.575,10.625,24.200
T1900-0149,,,
P1900-0146,,,
P1900-0151,,,
P2016-0032,14.138,444.880,459.018
P2016-0050,2.284,9.250,11.534
P2017-0129,55.091,69.153,124.244
P2016-0005,6.033,65.122,71.155
P2017-0130,1.069,3.667,4.736
P2016-0024,5.798,14.428,20.226
P2017-0090,8.205,10.042,18.247
P2016-0030,8.858,11.500,20.358
P2016-0028,11.208,9.708,20.916
P2016-0026,10.209,16.750,26.959
P2016-0054,17.702,44.583,62.285
P2016-0003,4.750,28.750,33.500
P2017-0087,10.724,9.875,20.599
P2016-0011,13.000,16.000,29.000
P2016-0068,0.000,1.250,1.250
T1900-0156,,,
P2017-0086,10.065,9.875,19.940
P2016-0009,8.208,6.708,14.916
P2016-0023,8.823,14.833,23.656
P2017-0118,3.000,6.000,9.000
P2016-0142,,,
P2016-0058,22.913,19.208,42.121
P2017-0108,6.975,5.208,12.183
T1900-0143,,,
P2016-0012,4.556,20.563,25.119
P2017-0127,2.376,1.708,4.084
P2017-0114,28.016,37.913,65.929
P2017-0115,6.298,6.500,12.798
P2017-0077,9.439,13.417,22.856
P2016-0040,17.792,17.792,35.584
P2017-0082,10.732,13.750,24.482
P2017-0104,29.833,36.042,65.875
P2016-0006,248.645,362.126,610.771
T1900-0154,,,
P2017-0124,4.875,2.875,7.750
P2017-0091,11.248,11.583,22.831
P2016-0051,6.229,16.250,22.479
P2016-0036,5.939,14.125,20.064
P2017-0110,7.238,7.167,14.405
P2016-0010,4.375,20.375,24.750
P2016-0057,28.398,46.541,74.939
P2016-0013,14.583,18.583,33.166
P2017-0119,2.170,5.417,7.587