150149,07/02/2018,7:00:21,12:07:44,12:07:49,16:02:49
150149,07/03/2018,7:14:56,,,18:21:56
150149,07/04/2018,7:23:00,,,18:48:03
150149,07/05/2018,9:44:00,12:24:27,12:24:33,18:44:32
150149,07/06/2018,7:37:35,12:32:42,12:32:47,18:21:17
150149,07/09/2018,6:53:39,12:27:57,12:28:02,16:34:40
150149,07/10/2018,9:27:40,12:34:44,12:34:49,18:40:39
150149,07/11/2018,11:15:12,12:13:08,12:13:13,17:28:12
150149,07/12/2018,7:45:58,12:58:53,12:58:58,18:14:24
150149,07/13/2018,9:50:42,12:29:48,12:30:11,17:21:21
150149,07/16/2018,8:10:41,12:08:25,12:08:32,18:41:41
150149,07/17/2018,,15:16:04,,
150149,07/18/2018,10:24:41,12:20:20,12:20:24,19:01:39
150149,07/19/2018,9:36:25,12:13:26,12:13:32,19:06:01
150149,07/20/2018,10:30:14,19:11:19,,
150149,07/23/2018,6:56:49,18:21:38,,
150149,07/24/2018,7:46:17,19:15:51,,
150149,07/25/2018,8:48:35,12:44:33,12:44:36,18:34:23
150149,07/26/2018,9:50:25,12:34:43,12:34:49,17:47:10
150149,07/27/2018,9:34:34,12:28:43,12:28:47,17:20:27
150149,07/30/2018,8:42:23,12:00:32,12:00:41,16:22:23
150149,07/31/2018,9:28:27,12:01:16,12:01:22,18:37:21
